\contentsline {section}{\numberline {1}Introduction}{2}{section.1}
\contentsline {section}{\numberline {2}Chapter 1}{2}{section.2}
\contentsline {subsection}{\numberline {2.1}Request format}{2}{subsection.2.1}
\contentsline {subsection}{\numberline {2.2}Response format}{2}{subsection.2.2}
\contentsline {section}{\numberline {3}Experimental evaluation}{2}{section.3}
