\relax 
\providecommand\hyper@newdestlabel[2]{}
\providecommand\HyperFirstAtBeginDocument{\AtBeginDocument}
\HyperFirstAtBeginDocument{\ifx\hyper@anchor\@undefined
\global\let\oldcontentsline\contentsline
\gdef\contentsline#1#2#3#4{\oldcontentsline{#1}{#2}{#3}}
\global\let\oldnewlabel\newlabel
\gdef\newlabel#1#2{\newlabelxx{#1}#2}
\gdef\newlabelxx#1#2#3#4#5#6{\oldnewlabel{#1}{{#2}{#3}}}
\AtEndDocument{\ifx\hyper@anchor\@undefined
\let\contentsline\oldcontentsline
\let\newlabel\oldnewlabel
\fi}
\fi}
\global\let\hyper@last\relax 
\gdef\HyperFirstAtBeginDocument#1{#1}
\providecommand\HyField@AuxAddToFields[1]{}
\providecommand\HyField@AuxAddToCoFields[2]{}
\citation{move2008}
\citation{dh}
\citation{gloss}
\bibcite{move2008}{1}
\@writefile{lof}{\contentsline {figure}{\numberline {1}{\ignorespaces Handshake protocol.}}{2}{figure.1}}
\newlabel{fig:handshake}{{1}{2}{Handshake protocol}{figure.1}{}}
\@writefile{toc}{\contentsline {section}{\numberline {1}Introduction}{2}{section.1}}
\@writefile{toc}{\contentsline {section}{\numberline {2}Chapter 1}{2}{section.2}}
\@writefile{toc}{\contentsline {subsection}{\numberline {2.1}Request format}{2}{subsection.2.1}}
\@writefile{toc}{\contentsline {subsection}{\numberline {2.2}Response format}{2}{subsection.2.2}}
\@writefile{toc}{\contentsline {section}{\numberline {3}Experimental evaluation}{2}{section.3}}
\bibcite{dh}{2}
\bibcite{gloss}{3}
\@writefile{lot}{\contentsline {table}{\numberline {1}{\ignorespaces Experimental results.}}{3}{table.1}}
\newlabel{tab:results}{{1}{3}{Experimental results}{table.1}{}}
