<?xml version="1.0"?><svg width="1052.3622" height="744.09448" xmlns="http://www.w3.org/2000/svg" xmlns:xlink="http://www.w3.org/1999/xlink">
 <defs>
  <filter id="filter3252">
   <feGaussianBlur stdDeviation="1.178906" id="feGaussianBlur3254"/>
  </filter>
  <filter id="filter3208">
   <feGaussianBlur stdDeviation="1.14875" id="feGaussianBlur3210"/>
  </filter>
  <filter id="filter3148">
   <feGaussianBlur stdDeviation="1.402813" id="feGaussianBlur3150"/>
  </filter>
  <filter id="filter3135">
   <feGaussianBlur stdDeviation="2.834687" id="feGaussianBlur3137"/>
  </filter>
  <linearGradient xlink:href="#linearGradient3106" id="linearGradient3112" x1="428.3233" y1="547.53186" x2="423.1069" y2="462.91049" gradientUnits="userSpaceOnUse" gradientTransform="translate(-6.9551821,-150.69561)"/>
  <linearGradient id="linearGradient3106">
   <stop stop-color="#000000" offset="0" id="stop3108"/>
   <stop stop-color="#000000" stop-opacity="0" offset="1" id="stop3110"/>
  </linearGradient>
 </defs>
 <metadata id="metadata7">image/svg+xml</metadata>
 <g>
  <title>Layer 1</title>
  <g id="layer1">
   <g transform="matrix(2.1165915,0,0,2.1165915,-102.64501,-421.37693) " id="g2346">
    <path fill="#ffcc00" stroke="#000000" stroke-width="0.5" stroke-linecap="round" stroke-linejoin="round" stroke-miterlimit="4" d="m173.53125,283.5625c-53.645477,0 -97.1875,40.886505 -97.1875,91.28125c0,50.394745 43.542007,91.3125 97.1875,91.3125c40.286041,0 74.865051,-23.070374 89.59375,-55.90625l25.25,0c0.336731,-17.888062 -0.690125,-15.4375 -0.690125,-15.4375l20.877594,8.245636l2.125031,0.000061l10.375,-15.433197l9.470917,14.284027l3.061829,0.108276l12.654755,-13.861053l19.325592,17.050079l8.402191,0.008667l22.084717,-17.589996l14.809204,16.105835l3.402405,-0.131195l9.538391,-6.72464l13.129639,5.018158l11.567444,-0.53772l14.834167,-15.761688l11.208893,14.382233l6.937714,0.000397l36.353394,-47.132629l0,-13.40625l-254.71875,0c-14.728699,-32.827118 -49.307709,-55.875 -89.59375,-55.875zm-46.375,65.875c14.036377,0 25.40625,11.401123 25.40625,25.4375c0,14.036377 -11.369873,25.40625 -25.40625,25.40625c-14.036369,0 -25.4375,-11.401123 -25.4375,-25.4375c0,-14.036377 11.401131,-25.40625 25.4375,-25.40625z" id="path2907"/>
    <rect fill="#d4aa00" stroke="#000000" stroke-width="0.5" stroke-linecap="round" stroke-linejoin="round" stroke-miterlimit="4" id="rect2918" width="236.01192" height="7.653097" x="268.09952" y="347.76212"/>
    <rect fill="#d4aa00" stroke="#000000" stroke-width="0.5" stroke-linecap="round" stroke-linejoin="round" stroke-miterlimit="4" y="364.67529" x="268.09952" height="7.653097" width="223.84035" id="rect2920"/>
    <path fill="#000000" stroke="#000000" stroke-width="0.5" stroke-linecap="round" stroke-linejoin="round" stroke-miterlimit="4" filter="url(#filter3135)" d="m517.27417,337.702484l0,11.09375l-36.374969,47.125l-6.9375,0l-11.1875,-14.375l-14.84375,15.75l-11.5625,0.53125l-13.125,-5l-9.5625,6.71875l-3.375,0.125l-14.8125,-16.09375l-22.09375,17.59375l-8.40625,-0.03125l-19.3125,-17.03125l-12.65625,13.84375l-3.0625,-0.09375l-9.46875,-14.28125l-10.375,15.4375l-2.125,0l-20.625,-8.15625c0.276276,0.718689 0.655304,3.7724 0.4375,15.34375l-25.25,0c-14.728714,32.835876 -49.307724,55.906219 -89.593765,55.90625c-45.570457,0 -83.852104,-29.532227 -94.343742,-69.3125c9.599197,40.936401 48.462135,71.625 94.906242,71.625c40.286041,0 74.865051,-23.070374 89.593765,-55.90625l25.25,0c0.210449,-11.180023 -0.10376,-14.427002 -0.375,-15.28125l20.5625,8.09375l2.125,0l10.375,-15.4375l9.46875,14.28125l3.0625,0.09375l12.65625,-13.84375l19.34375,17.03125l8.40625,0.03125l22.0625,-17.59375l14.8125,16.09375l3.40625,-0.125l9.53125,-6.71875l13.125,5l11.59375,-0.53125l14.8125,-15.75l11.21875,14.375l6.9375,0l36.343719,-47.125l0,-13.40625l-0.5625,0zm-390.687477,7.6875c-14.036369,0 -25.4375,11.369843 -25.4375,25.40625c0,2.587189 0.373947,5.084229 1.09375,7.4375c-0.339165,-1.65509 -0.53125,-3.370453 -0.53125,-5.125c0,-14.036377 11.401131,-25.40625 25.4375,-25.40625c11.404549,0 21.06559,7.523743 24.281242,17.875c-2.415909,-11.523438 -12.606018,-20.187531 -24.843742,-20.1875z" id="path3126"/>
    <path fill="#ffffff" stroke-width="0.5" stroke-linecap="round" stroke-linejoin="round" stroke-miterlimit="4" filter="url(#filter3148)" d="m173.53125,283.5625c-53.645477,0 -97.1875,40.886505 -97.1875,91.28125c0,6.299347 0.67337,12.464478 1.96875,18.40625c-0.917961,-5.037018 -1.375,-10.218628 -1.375,-15.5c0,-50.394745 43.54203,-91.28125 97.1875,-91.28125c40.286041,0 74.865036,23.047882 89.59375,55.875l254.125,0l0,-2.90625l-254.71875,0c-14.728683,-32.827087 -49.307709,-55.875 -89.59375,-55.875zm-21.1875,87.875c0.151871,1.12439 0.21875,2.271729 0.21875,3.4375c0,14.036377 -11.369873,25.40625 -25.40625,25.40625c-11.81881,0.000031 -21.744659,-8.066528 -24.59375,-19c1.722488,12.367584 12.3498,21.90625 25.1875,21.90625c14.036377,0 25.406265,-11.369873 25.40625,-25.40625c0,-2.193176 -0.290527,-4.312683 -0.8125,-6.34375z" id="path3139"/>
    <path fill="#808080" stroke-width="0.5" stroke-linecap="round" stroke-linejoin="round" stroke-miterlimit="4" filter="url(#filter3208)" d="m190.997375,294.921875c-2.035675,0.373199 -3.955994,1.351471 -5.46875,2.8125c-2.068741,1.998016 -3.221252,4.748932 -3.21875,7.625l0,138.53125c-0.003616,2.825714 1.121323,5.526245 3.09375,7.5c-0.875427,-1.560425 -1.37735,-3.318634 -1.375,-5.15625l0,-138.53125c-0.002502,-2.876068 1.150009,-5.626984 3.21875,-7.625c1.076279,-1.03949 2.366333,-1.837067 3.75,-2.34375l0,-2.8125zm4.625,0.1875l0,159.03125c0.580261,-0.140747 1.14444,-0.285645 1.71875,-0.4375l0,-156.25c2.560013,0.620422 5.07399,1.359802 7.53125,2.1875l0,-1.75c-3.012558,-1.078003 -6.08609,-2.014465 -9.25,-2.78125zm13.875,4.5625l0,149.90625c0.583054,-0.245514 1.141769,-0.492767 1.71875,-0.75l0,-146.8125c2.57431,1.083252 5.093323,2.259186 7.53125,3.5625l0,-1.375c-2.967377,-1.671417 -6.06546,-3.191223 -9.25,-4.53125zm13.875,7.34375l0,135.21875c0.578918,-0.374512 1.150635,-0.737335 1.71875,-1.125l0,-131.75c2.619919,1.694214 5.130493,3.497284 7.53125,5.4375l0,-0.90625c-2.911316,-2.481934 -5.998779,-4.772552 -9.25,-6.875zm13.875,11.15625l0,112.90625c0.586548,-0.579712 1.14856,-1.154663 1.71875,-1.75l0,-108.8125c2.536499,2.505737 4.929657,5.127014 7.125,7.90625c-2.655243,-3.635559 -5.615387,-7.060791 -8.84375,-10.25zm8.84375,10.25c0.137848,0.17453 0.269943,0.355621 0.40625,0.53125l0,-0.03125c-0.124832,-0.174042 -0.279892,-0.326965 -0.40625,-0.5zm5.03125,7.78125l0,76.8125c0.602432,-1.062653 1.165054,-2.129517 1.71875,-3.21875l0,-70.34375c-0.553696,-1.088989 -1.116318,-2.187714 -1.71875,-3.25z" id="path3171"/>
    <path fill="#ffdd55" stroke-width="0.5" stroke-linecap="round" stroke-linejoin="round" stroke-miterlimit="4" filter="url(#filter3252)" d="m191.497375,295.421875c-1.00824,0.184845 -1.990097,0.533173 -2.90625,1l0,156.0625c-1.10144,-0.201721 -2.163498,-0.587311 -3.15625,-1.125c0.425064,0.48526 0.890839,0.936859 1.40625,1.34375c1.374222,1.0849 2.977051,1.786194 4.65625,2.09375l0,-159.375zm10.96875,2l0,152.125c-2.079559,0.744781 -4.196579,1.431488 -6.34375,2.03125l0,3.0625c3.164139,-0.767517 6.237244,-1.70224 9.25,-2.78125l0,-153.46875c-0.958588,-0.343018 -1.934372,-0.655304 -2.90625,-0.96875zm13.875,5.71875l0,140.09375c-2.057114,1.159515 -4.17572,2.246643 -6.34375,3.25l0,3.59375c3.18454,-1.341003 6.282639,-2.858643 9.25,-4.53125l0,-140.84375c-0.954361,-0.537567 -1.9263,-1.05722 -2.90625,-1.5625zm13.875,8.9375l0,121.4375c-2.027328,1.72934 -4.151642,3.354706 -6.34375,4.90625l0,4.3125c3.253571,-2.104889 6.336792,-4.421234 9.25,-6.90625l0,-121.4375c-0.942947,-0.803894 -1.926758,-1.548645 -2.90625,-2.3125zm7.53125,6.59375l0,0.6875c2.2789,2.463745 4.39859,5.037811 6.34375,7.75l0,91.375c-1.941437,2.70813 -4.069778,5.281647 -6.34375,7.75l0,5.34375c3.382004,-3.342712 6.501968,-6.947998 9.25,-10.78125l0,-91.375c-2.748032,-3.831635 -5.867996,-7.409027 -9.25,-10.75zm13.875,18.03125l0,3.3125c4.699127,10.059265 7.3125,21.150116 7.3125,32.78125c0,11.631317 -2.613403,22.72052 -7.3125,32.78125l0,7.9375c6.51181,-11.486542 10.21875,-24.563385 10.21875,-38.40625c0,-13.84259 -3.706909,-26.923859 -10.21875,-38.40625z" id="path3166"/>
   </g>
  </g>
 </g>
</svg>