\relax 
\providecommand\hyper@newdestlabel[2]{}
\@writefile{toc}{\contentsline {section}{\numberline {7}Game's manual}{21}{section.7}}
\newlabel{gamesmanual}{{7}{21}{Game's manual}{section.7}{}}
\@writefile{toc}{\contentsline {subsection}{\numberline {7.1}Learn Tab}{21}{subsection.7.1}}
\@writefile{toc}{\contentsline {subsubsection}{\numberline {7.1.1}Quiz Game Play}{21}{subsubsection.7.1.1}}
\@writefile{toc}{\contentsline {subsubsection}{\numberline {7.1.2}Text Game Play}{21}{subsubsection.7.1.2}}
\@writefile{toc}{\contentsline {subsubsection}{\numberline {7.1.3}Block Game Play}{22}{subsubsection.7.1.3}}
\@writefile{toc}{\contentsline {subsection}{\numberline {7.2}Insight Tab}{22}{subsection.7.2}}
\@writefile{toc}{\contentsline {subsection}{\numberline {7.3}Me Tab}{22}{subsection.7.3}}
\@setckpt{gamesmanual}{
\setcounter{page}{23}
\setcounter{equation}{0}
\setcounter{enumi}{3}
\setcounter{enumii}{0}
\setcounter{enumiii}{0}
\setcounter{enumiv}{0}
\setcounter{footnote}{0}
\setcounter{mpfootnote}{0}
\setcounter{part}{0}
\setcounter{section}{7}
\setcounter{subsection}{3}
\setcounter{subsubsection}{0}
\setcounter{paragraph}{0}
\setcounter{subparagraph}{0}
\setcounter{figure}{3}
\setcounter{table}{0}
\setcounter{Item}{6}
\setcounter{Hfootnote}{0}
\setcounter{bookmark@seq@number}{0}
\setcounter{lstnumber}{1}
\setcounter{section@level}{2}
\setcounter{lstlisting}{0}
}
