\relax 
\providecommand\hyper@newdestlabel[2]{}
\providecommand\HyperFirstAtBeginDocument{\AtBeginDocument}
\HyperFirstAtBeginDocument{\ifx\hyper@anchor\@undefined
\global\let\oldcontentsline\contentsline
\gdef\contentsline#1#2#3#4{\oldcontentsline{#1}{#2}{#3}}
\global\let\oldnewlabel\newlabel
\gdef\newlabel#1#2{\newlabelxx{#1}#2}
\gdef\newlabelxx#1#2#3#4#5#6{\oldnewlabel{#1}{{#2}{#3}}}
\AtEndDocument{\ifx\hyper@anchor\@undefined
\let\contentsline\oldcontentsline
\let\newlabel\oldnewlabel
\fi}
\fi}
\global\let\hyper@last\relax 
\gdef\HyperFirstAtBeginDocument#1{#1}
\providecommand\HyField@AuxAddToFields[1]{}
\providecommand\HyField@AuxAddToCoFields[2]{}
\@input{chapter0.aux}
\bibcite{popper}{1}
\bibcite{kenrobinson}{2}
\bibcite{mcluhan}{3}
\bibcite{bauman}{4}
\bibcite{galimberti}{5}
\bibcite{mihaly}{6}
\bibcite{kirtsquire}{7}
\bibcite{ryan_1}{8}
\bibcite{beckchang}{9}
\bibcite{corbett}{10}
\bibcite{anderson}{11}
\bibcite{koedinger}{12}
