This is BibTeX, Version 0.99dThe top-level auxiliary file: Latex.aux
A level-1 auxiliary file: chapter0.aux
A level-1 auxiliary file: chapter1.aux
A level-1 auxiliary file: chapter2.aux
A level-1 auxiliary file: chapter3.aux
A level-1 auxiliary file: chapter4.aux
A level-1 auxiliary file: recap.aux
A level-1 auxiliary file: gamesmanual.aux
A level-1 auxiliary file: programmersmanual.aux
I found no \bibdata command---while reading file Latex.aux
I found no \bibstyle command---while reading file Latex.aux
(There were 2 error messages)
