\relax 
\providecommand\hyper@newdestlabel[2]{}
\@writefile{toc}{\contentsline {section}{\numberline {8}Programmer's Manual}{23}{section.8}}
\@writefile{toc}{\contentsline {subsection}{\numberline {8.1}Implementation of the security-serious Game based on KBT}{23}{subsection.8.1}}
\@writefile{toc}{\contentsline {subsubsection}{\numberline {8.1.1}Menu Scene}{23}{subsubsection.8.1.1}}
\@writefile{toc}{\contentsline {subsubsection}{\numberline {8.1.2}\relax \unhbox \voidb@x \hbox {}\bgroup \catcode `\ \active \let \GenericInfo  {            }{LaTeX Info: Active EOL character found while output routine is active \MessageBreak This may be a bug in a package file you are using\par } \par \def \GenericInfo  {            }{LaTeX Info: Active EOL character found while output routine is active \MessageBreak This may be a bug in a package file you are using\par } {\global \let \egroup \GenericError  {               }{LaTeX Error: \relax \unhbox \voidb@x \hbox {}\bgroup \catcode `\ \active \let \GenericInfo  {            }{LaTeX Info: Active EOL character found while output routine is active \MessageBreak This may be a bug in a package file you are using\par } \par \def \GenericInfo  {            }{LaTeX Info: Active EOL character found while output routine is active \MessageBreak This may be a bug in a package file you are using\par } {\global \let \egroup \GenericError  {               }{LaTeX Error: \verb ended by end of line}{See the LaTeX manual or LaTeX Companion for explanation.}{Try typing  <return>  to proceed.\MessageBreak If that doesn't work, type  X <return>  to quit.}}\let \@makeother \ \\\{\}\$\&\#\^\_\%\~\normalfont  \ttfamily  \let \do@noligs \`\<\>\,\'\-\language \l@nohyphenation \let \reserved@d =*\def \par }\def \begingroup \let \@@protect \let \@unexpandable@protect \afterassignment \let \@@protect \edef {\catcode `\ \active \let \GenericInfo  {            }{LaTeX Info: Active space character found while output routine is active \MessageBreak This may be a bug in a package file you are using\par } \unhbox \voidb@x \penalty \@M \ \sfcode `\.\@m \sfcode `\@m \sfcode `\mskip -\thinmuskip \@m \sfcode `\mskip \medmuskip \@m \sfcode `\mskip \thickmuskip \@m \sfcode `\,\@m \par }\edef {\futurelet }\toks@ {\endgroup \par }\toks@ {\let {}{\@let@token }}\let \lst@loadaspects \@empty \let \begingroup \let \@@protect \let \@unexpandable@protect \afterassignment \let \@@protect \edef {\par }\edef {}\toks@ {\endgroup \par }\toks@ {\let {}{}}\let \lst@loadaspects \@empty \begingroup \let \@@protect \let \@unexpandable@protect \afterassignment \let \@@protect \edef {e}\edef {n}\toks@ {\endgroup \par }\toks@ {\let {}{d}}\let \lst@loadaspects \@empty ed by end of line}{See the LaTeX manual or LaTeX Companion for explanation.}{Try typing  <return>  to proceed.\MessageBreak If that doesn't work, type  X <return>  to quit.}}\let \catcode `\ 12\relax \let \reserved@e \relax \let \reserved@f \relax \let \reserved@d =*\def \par }\def \begingroup \let \@@protect \let \@unexpandable@protect \afterassignment \let \@@protect \edef {\let \reserved@d =[\def \def \begingroup \let \@@protect \let \@unexpandable@protect \afterassignment \let \@@protect \edef {\unskip \reserved@e {\reserved@f \relax }\penalty \@M \hfil \penalty -\@M }\edef {\futurelet }\toks@ {\endgroup \par }\toks@ {\let {}{\@let@token }}\let \lst@loadaspects \@empty \let \begingroup \let \@@protect \let \@unexpandable@protect \afterassignment \let \@@protect \edef {\par }\edef {}\toks@ {\endgroup \par }\toks@ {\let {}{}}\let \lst@loadaspects \@empty \par }\edef {\futurelet }\toks@ {\endgroup \par }\toks@ {\let {}{\@let@token }}\let \lst@loadaspects \@empty \let \begingroup \let \@@protect \let \@unexpandable@protect \afterassignment \let \@@protect \edef {\par }\edef {}\toks@ {\endgroup \par }\toks@ {\let {}{}}\let \lst@loadaspects \@empty \begingroup \let \@@protect \let \@unexpandable@protect \afterassignment \let \@@protect \edef {\{}\edef {\}}\toks@ {\endgroup \par }\toks@ {\let {}{\$}}\let \lst@loadaspects \@empty \&\#\^\_\%\~\normalfont  \ttfamily  \let \catcode `\`\active \begingroup \lccode `\~`\`\relax \lowercase {\endgroup \def \nobreakspace  {}{\unhbox \voidb@x \kern \z@ \char `\`}}\mskip \medmuskip \,\'\-\language \l@nohyphenation \let \reserved@d =*\def \par 
\@writefile{toc}{\contentsline {subsubsection}{\numberline {8.1.3}Question Scene}{23}{subsubsection.8.1.3}}
\@writefile{toc}{\contentsline {subsection}{\numberline {8.2}KNOWLEDGE BAYESIAN COMPONENT}{23}{subsection.8.2}}
\citation{beckchang}
\@writefile{toc}{\contentsline {subsubsection}{\numberline {8.2.1}Attributes and Constructor of KBT Class}{24}{subsubsection.8.2.1}}
\newlabel{lst:kc}{{8.2.1}{24}{}{lstlisting.-1}{}}
\newlabel{lst:kcrec}{{8.2.1}{24}{}{lstlisting.-2}{}}
\@writefile{toc}{\contentsline {subsubsection}{\numberline {8.2.2}Example}{24}{subsubsection.8.2.2}}
\citation{anderson}
\citation{koedinger}
\@writefile{toc}{\contentsline {subsubsection}{\numberline {8.2.3}Query Methods}{25}{subsubsection.8.2.3}}
\newlabel{queryset}{{8.2.3}{25}{Query Methods}{subsubsection.8.2.3}{}}
\@writefile{toc}{\contentsline {subsubsection}{\numberline {8.2.4}Command Methods}{25}{subsubsection.8.2.4}}
\newlabel{commandset}{{8.2.4}{25}{Command Methods}{subsubsection.8.2.4}{}}
\citation{corbett}
\@writefile{toc}{\contentsline {subsubsection}{\numberline {8.2.5}Model Degeneracy}{27}{subsubsection.8.2.5}}
\@setckpt{programmersmanual}{
\setcounter{page}{28}
\setcounter{equation}{0}
\setcounter{enumi}{3}
\setcounter{enumii}{0}
\setcounter{enumiii}{0}
\setcounter{enumiv}{0}
\setcounter{footnote}{0}
\setcounter{mpfootnote}{0}
\setcounter{part}{0}
\setcounter{section}{8}
\setcounter{subsection}{2}
\setcounter{subsubsection}{5}
\setcounter{paragraph}{0}
\setcounter{subparagraph}{0}
\setcounter{figure}{3}
\setcounter{table}{0}
\setcounter{Item}{6}
\setcounter{Hfootnote}{0}
\setcounter{bookmark@seq@number}{0}
\setcounter{lstnumber}{3}
\setcounter{section@level}{3}
\setcounter{lstlisting}{0}
}
