\relax 
\providecommand\hyper@newdestlabel[2]{}
\@writefile{toc}{\contentsline {section}{\numberline {6}Recaps}{15}{section.6}}
\@writefile{toc}{\contentsline {subsection}{\numberline {6.1}Recap on Firewall}{15}{subsection.6.1}}
\newlabel{firewall}{{6.1}{15}{Recap on Firewall}{subsection.6.1}{}}
\@writefile{toc}{\contentsline {subsubsection}{\numberline {6.1.1}Topology}{16}{subsubsection.6.1.1}}
\@writefile{toc}{\contentsline {subsubsection}{\numberline {6.1.2}IDS}{16}{subsubsection.6.1.2}}
\@writefile{toc}{\contentsline {subsubsection}{\numberline {6.1.3}IPS}{16}{subsubsection.6.1.3}}
\@writefile{toc}{\contentsline {subsection}{\numberline {6.2}Recap on Symmetric Cryptography}{17}{subsection.6.2}}
\newlabel{recap_crypto}{{6.2}{17}{Recap on Symmetric Cryptography}{subsection.6.2}{}}
\newlabel{symmetric}{{6.2}{17}{Recap on Symmetric Cryptography}{subsection.6.2}{}}
\@writefile{toc}{\contentsline {subsubsection}{\numberline {6.2.1}ECB}{17}{subsubsection.6.2.1}}
\newlabel{ecb}{{6.2.1}{17}{ECB}{subsubsection.6.2.1}{}}
\@writefile{toc}{\contentsline {subsubsection}{\numberline {6.2.2}CBC}{18}{subsubsection.6.2.2}}
\newlabel{cbc}{{6.2.2}{18}{CBC}{subsubsection.6.2.2}{}}
\@writefile{toc}{\contentsline {subsubsection}{\numberline {6.2.3}CTS}{18}{subsubsection.6.2.3}}
\@writefile{toc}{\contentsline {subsubsection}{\numberline {6.2.4}CFB}{19}{subsubsection.6.2.4}}
\@writefile{toc}{\contentsline {subsubsection}{\numberline {6.2.5}OFB}{19}{subsubsection.6.2.5}}
\@writefile{toc}{\contentsline {subsubsection}{\numberline {6.2.6}CTR}{19}{subsubsection.6.2.6}}
\@writefile{toc}{\contentsline {subsubsection}{\numberline {6.2.7}3DES}{19}{subsubsection.6.2.7}}
\@writefile{toc}{\contentsline {subsubsection}{\numberline {6.2.8}IDEA}{19}{subsubsection.6.2.8}}
\@writefile{toc}{\contentsline {subsubsection}{\numberline {6.2.9}RC2 -RC4 -RC5}{20}{subsubsection.6.2.9}}
\@writefile{toc}{\contentsline {subsection}{\numberline {6.3}AES}{20}{subsection.6.3}}
\newlabel{aes}{{6.3}{20}{AES}{subsection.6.3}{}}
\@setckpt{recap}{
\setcounter{page}{21}
\setcounter{equation}{0}
\setcounter{enumi}{3}
\setcounter{enumii}{0}
\setcounter{enumiii}{0}
\setcounter{enumiv}{0}
\setcounter{footnote}{0}
\setcounter{mpfootnote}{0}
\setcounter{part}{0}
\setcounter{section}{6}
\setcounter{subsection}{3}
\setcounter{subsubsection}{0}
\setcounter{paragraph}{0}
\setcounter{subparagraph}{0}
\setcounter{figure}{3}
\setcounter{table}{0}
\setcounter{Item}{6}
\setcounter{Hfootnote}{0}
\setcounter{bookmark@seq@number}{0}
\setcounter{lstnumber}{1}
\setcounter{section@level}{2}
\setcounter{lstlisting}{0}
}
