\relax 
\providecommand\hyper@newdestlabel[2]{}
\citation{mihaly}
\@writefile{toc}{\contentsline {section}{\numberline {2}Learning vs entertainment}{6}{section.2}}
\newlabel{chapter1}{{2}{6}{Learning vs entertainment}{section.2}{}}
\citation{kirtsquire}
\@writefile{lof}{\contentsline {figure}{\numberline {1}{\ignorespaces The flow theory diagram}}{7}{figure.1}}
\newlabel{fig:flow_t}{{1}{7}{The flow theory diagram}{figure.1}{}}
\@writefile{lot}{\contentsline {table}{\numberline {1}{\ignorespaces Exogenous games vs Endogenous games by Kirt Squire \cite  {kirtsquire}}}{8}{table.1}}
\newlabel{tab:exend}{{1}{8}{Exogenous games vs Endogenous games by Kirt Squire \cite {kirtsquire}}{table.1}{}}
\@setckpt{chapter1}{
\setcounter{page}{9}
\setcounter{equation}{0}
\setcounter{enumi}{0}
\setcounter{enumii}{0}
\setcounter{enumiii}{0}
\setcounter{enumiv}{0}
\setcounter{footnote}{0}
\setcounter{mpfootnote}{0}
\setcounter{part}{0}
\setcounter{section}{2}
\setcounter{subsection}{0}
\setcounter{subsubsection}{0}
\setcounter{paragraph}{0}
\setcounter{subparagraph}{0}
\setcounter{figure}{1}
\setcounter{table}{1}
\setcounter{Item}{0}
\setcounter{Hfootnote}{0}
\setcounter{bookmark@seq@number}{0}
\setcounter{lstnumber}{1}
\setcounter{section@level}{1}
\setcounter{lstlisting}{0}
}
