\relax 
\providecommand\hyper@newdestlabel[2]{}
\@writefile{toc}{\contentsline {section}{\numberline {5}Gaetano's Journey}{13}{section.5}}
\@writefile{toc}{\contentsline {subsection}{\numberline {5.1}Security serious game on Firewall}{13}{subsection.5.1}}
\@writefile{toc}{\contentsline {subsubsection}{\numberline {5.1.1}Clash of Lans: a firewall serious game}{13}{subsubsection.5.1.1}}
\@writefile{lof}{\contentsline {figure}{\numberline {3}{\ignorespaces Mockup on the top view of the firewall serious game}}{14}{figure.3}}
\newlabel{fig:mock_1}{{3}{14}{Mockup on the top view of the firewall serious game}{figure.3}{}}
\@writefile{lof}{\contentsline {figure}{\numberline {4}{\ignorespaces Mockup on the settings and configurations of the firewall serious game}}{15}{figure.4}}
\newlabel{fig:mock_2}{{4}{15}{Mockup on the settings and configurations of the firewall serious game}{figure.4}{}}
\@writefile{toc}{\contentsline {subsubsection}{\numberline {5.1.2}Pros and Cons on the serious firewall game}{15}{subsubsection.5.1.2}}
\@writefile{toc}{\contentsline {subsection}{\numberline {5.2}Security serious game on Criptography}{15}{subsection.5.2}}
\@writefile{toc}{\contentsline {subsubsection}{\numberline {5.2.1}A serious game based on reinforcement learning}{16}{subsubsection.5.2.1}}
\@writefile{toc}{\contentsline {subsubsection}{\numberline {5.2.2}BigBro's world}{16}{subsubsection.5.2.2}}
\newlabel{bigbro}{{5.2.2}{16}{BigBro's world}{subsubsection.5.2.2}{}}
\@writefile{lof}{\contentsline {figure}{\numberline {5}{\ignorespaces Characters in the BigBro game: The first two are BigBro robots in two opposite moods. They are terminals of the Big Brother Artificial Intelligence. The last is a Malabear it was inspired by Hello Barbie, a toy by Mattel that can be hacked to turn it into a device for spying}}{17}{figure.5}}
\newlabel{fig:char}{{5}{17}{Characters in the BigBro game: The first two are BigBro robots in two opposite moods. They are terminals of the Big Brother Artificial Intelligence. The last is a Malabear it was inspired by Hello Barbie, a toy by Mattel that can be hacked to turn it into a device for spying}{figure.5}{}}
\@writefile{toc}{\contentsline {subsubsection}{\numberline {5.2.3}BigBro a serious game open and designed for scalability}{17}{subsubsection.5.2.3}}
\@writefile{toc}{\contentsline {subsubsection}{\numberline {5.2.4}BigBro gameplays}{17}{subsubsection.5.2.4}}
\@writefile{lof}{\contentsline {figure}{\numberline {6}{\ignorespaces In each level, there is a set of answer that has to be answered before to move forward. If the player makes a mistake, the system will test the player on the same level. The first screen shows a trivial implementation of the quiz game play. It gives more information after the player submits the right answer, the second requires the player to type the answer and in the case of a wrong answer gives a set of possible right options to avoid the player to be stuck in the questions. There is also the possibility to ask for a hint, and the system collects this kind of information.}}{18}{figure.6}}
\newlabel{fig:big1}{{6}{18}{In each level, there is a set of answer that has to be answered before to move forward. If the player makes a mistake, the system will test the player on the same level. The first screen shows a trivial implementation of the quiz game play. It gives more information after the player submits the right answer, the second requires the player to type the answer and in the case of a wrong answer gives a set of possible right options to avoid the player to be stuck in the questions. There is also the possibility to ask for a hint, and the system collects this kind of information}{figure.6}{}}
\@writefile{toc}{\contentsline {subsection}{\numberline {5.3}Teaching computer security with BigBro game}{18}{subsection.5.3}}
\@writefile{lof}{\contentsline {figure}{\numberline {7}{\ignorespaces  This gameplay will test the ability of the player to manipulate and combine different elements to achieve a goal. The system collects information and could react differently to the wrong solution and not optimal ones. In this case, only one valid combination of blocks. In some of these tests, there are blocks that will not appear in the solution with the only purpose to confuse the player, detect random answer, discourage them and make the test more difficult. }}{19}{figure.7}}
\newlabel{fig:big2}{{7}{19}{This gameplay will test the ability of the player to manipulate and combine different elements to achieve a goal. The system collects information and could react differently to the wrong solution and not optimal ones. In this case, only one valid combination of blocks. In some of these tests, there are blocks that will not appear in the solution with the only purpose to confuse the player, detect random answer, discourage them and make the test more difficult}{figure.7}{}}
\@writefile{lol}{\contentsline {lstlisting}{\numberline {1}{Question number 32 in the level file}}{19}{lstlisting.1}}
\newlabel{lst:qid32}{{1}{19}{Teaching computer security with BigBro game}{lstlisting.1}{}}
\@writefile{lol}{\contentsline {lstlisting}{\numberline {2}{Feedback number 32 in the level file}}{19}{lstlisting.2}}
\newlabel{lst:tid31}{{2}{19}{Teaching computer security with BigBro game}{lstlisting.2}{}}
\@writefile{lol}{\contentsline {lstlisting}{\numberline {3}{Question number 26 in the level file}}{20}{lstlisting.3}}
\newlabel{lst:qid26}{{3}{20}{Teaching computer security with BigBro game}{lstlisting.3}{}}
\@writefile{lol}{\contentsline {lstlisting}{\numberline {4}{Question number 38 in the level file}}{20}{lstlisting.4}}
\newlabel{lst:qid38}{{4}{20}{Teaching computer security with BigBro game}{lstlisting.4}{}}
\@writefile{lol}{\contentsline {lstlisting}{\numberline {5}{Question number 49 in the level file}}{21}{lstlisting.5}}
\newlabel{lst:qid49}{{5}{21}{Teaching computer security with BigBro game}{lstlisting.5}{}}
\@writefile{lol}{\contentsline {lstlisting}{\numberline {6}{Question number 45 in the level file}}{21}{lstlisting.6}}
\newlabel{lst:qid45}{{6}{21}{Teaching computer security with BigBro game}{lstlisting.6}{}}
\@writefile{lol}{\contentsline {lstlisting}{\numberline {7}{Question number 50 in the level file}}{21}{lstlisting.7}}
\newlabel{lst:qid50}{{7}{21}{Teaching computer security with BigBro game}{lstlisting.7}{}}
\@writefile{lol}{\contentsline {lstlisting}{\numberline {8}{Question number 51 in the level file}}{22}{lstlisting.8}}
\newlabel{lst:qid51}{{8}{22}{Teaching computer security with BigBro game}{lstlisting.8}{}}
\@writefile{lol}{\contentsline {lstlisting}{\numberline {9}{Question number 52 in the level file}}{22}{lstlisting.9}}
\newlabel{lst:qid52}{{9}{22}{Teaching computer security with BigBro game}{lstlisting.9}{}}
\@writefile{lot}{\contentsline {table}{\numberline {2}{\ignorespaces \newline  Question and topics covered in this version}}{23}{table.2}}
\newlabel{tab:contents}{{2}{23}{\newline Question and topics covered in this version}{table.2}{}}
\@writefile{toc}{\contentsline {subsection}{\numberline {5.4}Topics covered by the Serious game}{23}{subsection.5.4}}
\@writefile{toc}{\contentsline {subsubsection}{\numberline {5.4.1}Pros and cons on the cryptography Serious game}{23}{subsubsection.5.4.1}}
\@setckpt{chapter4}{
\setcounter{page}{24}
\setcounter{equation}{0}
\setcounter{enumi}{3}
\setcounter{enumii}{0}
\setcounter{enumiii}{0}
\setcounter{enumiv}{0}
\setcounter{footnote}{0}
\setcounter{mpfootnote}{0}
\setcounter{part}{0}
\setcounter{section}{5}
\setcounter{subsection}{4}
\setcounter{subsubsection}{1}
\setcounter{paragraph}{0}
\setcounter{subparagraph}{0}
\setcounter{figure}{7}
\setcounter{table}{2}
\setcounter{Item}{3}
\setcounter{Hfootnote}{0}
\setcounter{bookmark@seq@number}{0}
\setcounter{lstnumber}{12}
\setcounter{section@level}{3}
\setcounter{lstlisting}{9}
}
