\relax 
\providecommand\hyper@newdestlabel[2]{}
\@writefile{toc}{\contentsline {section}{\numberline {4}Knowledge models and representation}{10}{section.4}}
\@writefile{toc}{\contentsline {subsection}{\numberline {4.1}Knowledge Bayesian Tracing}{10}{subsection.4.1}}
\newlabel{kbt}{{4.1}{10}{Knowledge Bayesian Tracing}{subsection.4.1}{}}
\@writefile{toc}{\contentsline {subsubsection}{\numberline {4.1.1}Knowledge Bayesian Tracing Parameters}{11}{subsubsection.4.1.1}}
\@writefile{lof}{\contentsline {figure}{\numberline {2}{\ignorespaces The KBT Bayesian network representation}}{11}{figure.2}}
\newlabel{fig:kbt}{{2}{11}{The KBT Bayesian network representation}{figure.2}{}}
\citation{ryan_1}
\@setckpt{chapter3}{
\setcounter{page}{13}
\setcounter{equation}{0}
\setcounter{enumi}{3}
\setcounter{enumii}{0}
\setcounter{enumiii}{0}
\setcounter{enumiv}{0}
\setcounter{footnote}{0}
\setcounter{mpfootnote}{0}
\setcounter{part}{0}
\setcounter{section}{4}
\setcounter{subsection}{1}
\setcounter{subsubsection}{1}
\setcounter{paragraph}{0}
\setcounter{subparagraph}{0}
\setcounter{figure}{2}
\setcounter{table}{1}
\setcounter{Item}{3}
\setcounter{Hfootnote}{0}
\setcounter{bookmark@seq@number}{0}
\setcounter{lstnumber}{1}
\setcounter{section@level}{3}
\setcounter{lstlisting}{0}
}
