\relax 
\providecommand\hyper@newdestlabel[2]{}
\@writefile{toc}{\contentsline {section}{\numberline {7}Game's manual}{30}{section.7}}
\newlabel{gamesmanual}{{7}{30}{Game's manual}{section.7}{}}
\@writefile{toc}{\contentsline {subsection}{\numberline {7.1}Getting Started}{30}{subsection.7.1}}
\newlabel{gamestart}{{7.1}{30}{Getting Started}{subsection.7.1}{}}
\@writefile{lof}{\contentsline {figure}{\numberline {8}{\ignorespaces Unity 5.5.0F3N loading view}}{30}{figure.8}}
\newlabel{fig:inst1}{{8}{30}{Unity 5.5.0F3N loading view}{figure.8}{}}
\@writefile{lof}{\contentsline {figure}{\numberline {9}{\ignorespaces Unity 5.5.0F3N open project view}}{30}{figure.9}}
\newlabel{fig:inst2}{{9}{30}{Unity 5.5.0F3N open project view}{figure.9}{}}
\@writefile{toc}{\contentsline {subsubsection}{\numberline {7.1.1}Windows Users}{31}{subsubsection.7.1.1}}
\@writefile{lof}{\contentsline {figure}{\numberline {10}{\ignorespaces Tick the unknown sources}}{31}{figure.10}}
\newlabel{fig:win}{{10}{31}{Tick the unknown sources}{figure.10}{}}
\@writefile{lof}{\contentsline {figure}{\numberline {11}{\ignorespaces Use this window proportion}}{31}{figure.11}}
\newlabel{fig:propo}{{11}{31}{Use this window proportion}{figure.11}{}}
\@writefile{toc}{\contentsline {subsubsection}{\numberline {7.1.2}Android User}{32}{subsubsection.7.1.2}}
\@writefile{lof}{\contentsline {figure}{\numberline {12}{\ignorespaces Tick the unknown sources}}{32}{figure.12}}
\newlabel{fig:source}{{12}{32}{Tick the unknown sources}{figure.12}{}}
\@writefile{lof}{\contentsline {figure}{\numberline {13}{\ignorespaces Unity 5.5.0F3N and BigBro}}{32}{figure.13}}
\newlabel{fig:inst3}{{13}{32}{Unity 5.5.0F3N and BigBro}{figure.13}{}}
\@writefile{toc}{\contentsline {section}{\numberline {8}Game main components}{32}{section.8}}
\@writefile{toc}{\contentsline {subsection}{\numberline {8.1}Learn Tab}{33}{subsection.8.1}}
\@writefile{lof}{\contentsline {figure}{\numberline {14}{\ignorespaces The first view is the Learn tab where the player can choose the level. The second view shows the stages of the selected level. The third one shows the view for the questions of the selected stage.}}{33}{figure.14}}
\newlabel{fig:gm1}{{14}{33}{The first view is the Learn tab where the player can choose the level. The second view shows the stages of the selected level. The third one shows the view for the questions of the selected stage}{figure.14}{}}
\@writefile{lof}{\contentsline {figure}{\numberline {15}{\ignorespaces After the player selects the right answer the progress bar updates its status and a green feedback panel shows up from the bottom. Clicking/touching the feedback panel a new question appears until the progress bar is not full or the exit button (the X in the top left corner) is selected.}}{34}{figure.15}}
\newlabel{fig:gm2}{{15}{34}{After the player selects the right answer the progress bar updates its status and a green feedback panel shows up from the bottom. Clicking/touching the feedback panel a new question appears until the progress bar is not full or the exit button (the X in the top left corner) is selected}{figure.15}{}}
\@writefile{lot}{\contentsline {table}{\numberline {3}{\ignorespaces \newline  The Quiz game play components in figure \ref  {fig:gp1}}}{34}{table.3}}
\newlabel{tab:gt1}{{3}{34}{\newline The Quiz game play components in figure \ref {fig:gp1}}{table.3}{}}
\@writefile{toc}{\contentsline {subsubsection}{\numberline {8.1.1}Quiz Game Play}{34}{subsubsection.8.1.1}}
\@writefile{toc}{\contentsline {subsubsection}{\numberline {8.1.2}Text Game Play}{34}{subsubsection.8.1.2}}
\@writefile{lof}{\contentsline {figure}{\numberline {16}{\ignorespaces The player can click the BigBro robot at the top left corner and receive an hint. To come back to the question the player has to click the feedback panel. }}{35}{figure.16}}
\newlabel{fig:gm3}{{16}{35}{The player can click the BigBro robot at the top left corner and receive an hint. To come back to the question the player has to click the feedback panel}{figure.16}{}}
\@writefile{lot}{\contentsline {table}{\numberline {4}{\ignorespaces The Text game play components in figure \ref  {fig:gp2}}}{35}{table.4}}
\newlabel{tab:gt2}{{4}{35}{The Text game play components in figure \ref {fig:gp2}}{table.4}{}}
\@writefile{toc}{\contentsline {subsubsection}{\numberline {8.1.3}Block Game Play}{35}{subsubsection.8.1.3}}
\@writefile{lof}{\contentsline {figure}{\numberline {17}{\ignorespaces The different element in the quiz gameplay}}{36}{figure.17}}
\newlabel{fig:gp1}{{17}{36}{The different element in the quiz gameplay}{figure.17}{}}
\@writefile{toc}{\contentsline {subsection}{\numberline {8.2}Insight Tab and Me Tab}{36}{subsection.8.2}}
\@writefile{lof}{\contentsline {figure}{\numberline {18}{\ignorespaces The different element in the quiz gameplay}}{37}{figure.18}}
\newlabel{fig:gp2}{{18}{37}{The different element in the quiz gameplay}{figure.18}{}}
\@writefile{lot}{\contentsline {table}{\numberline {5}{\ignorespaces \newline  The Block game play components in Fig.\nobreakspace  {}\ref  {fig:gp3}\xspace  }}{37}{table.5}}
\newlabel{tab:gt3}{{5}{37}{\newline The Block game play components in \myfig {\ref {fig:gp3}}}{table.5}{}}
\@writefile{lof}{\contentsline {figure}{\numberline {19}{\ignorespaces The sequence shows how to undo the last block appended clicking on it}}{38}{figure.19}}
\newlabel{fig:undo}{{19}{38}{The sequence shows how to undo the last block appended clicking on it}{figure.19}{}}
\@writefile{lof}{\contentsline {figure}{\numberline {20}{\ignorespaces The sequence shows how to check a sequence of the block game play}}{38}{figure.20}}
\newlabel{fig:blockgp3}{{20}{38}{The sequence shows how to check a sequence of the block game play}{figure.20}{}}
\@writefile{lof}{\contentsline {figure}{\numberline {21}{\ignorespaces The different element in the Block gameplay}}{39}{figure.21}}
\newlabel{fig:gp3}{{21}{39}{The different element in the Block gameplay}{figure.21}{}}
\@writefile{lof}{\contentsline {figure}{\numberline {22}{\ignorespaces The Insight tab and the Me tab}}{40}{figure.22}}
\newlabel{fig:me}{{22}{40}{The Insight tab and the Me tab}{figure.22}{}}
\@setckpt{gamesmanual}{
\setcounter{page}{41}
\setcounter{equation}{0}
\setcounter{enumi}{3}
\setcounter{enumii}{0}
\setcounter{enumiii}{0}
\setcounter{enumiv}{0}
\setcounter{footnote}{0}
\setcounter{mpfootnote}{0}
\setcounter{part}{0}
\setcounter{section}{8}
\setcounter{subsection}{2}
\setcounter{subsubsection}{0}
\setcounter{paragraph}{0}
\setcounter{subparagraph}{0}
\setcounter{figure}{22}
\setcounter{table}{5}
\setcounter{Item}{6}
\setcounter{Hfootnote}{0}
\setcounter{bookmark@seq@number}{0}
\setcounter{lstnumber}{12}
\setcounter{section@level}{2}
\setcounter{lstlisting}{9}
}
