\relax 
\providecommand\hyper@newdestlabel[2]{}
\@writefile{toc}{\contentsline {section}{\numberline {9}Programmer's Manual}{41}{section.9}}
\@writefile{toc}{\contentsline {subsection}{\numberline {9.1}Implementation of the security-serious Game based on KBT}{41}{subsection.9.1}}
\@writefile{toc}{\contentsline {subsubsection}{\numberline {9.1.1}Gettin Started with the BigBro code}{41}{subsubsection.9.1.1}}
\@writefile{lof}{\contentsline {figure}{\numberline {23}{\ignorespaces \newline  This picture shows the Unity software and where you can find main components of a project}}{41}{figure.23}}
\newlabel{fig:unity}{{23}{41}{\newline This picture shows the Unity software and where you can find main components of a project}{figure.23}{}}
\@writefile{toc}{\contentsline {subsubsection}{\numberline {9.1.2}Menu Scene and its scripts}{41}{subsubsection.9.1.2}}
\newlabel{menuscn}{{9.1.2}{41}{Menu Scene and its scripts}{subsubsection.9.1.2}{}}
\@writefile{lot}{\contentsline {table}{\numberline {6}{\ignorespaces \newline  Description of the menu scene component in figure \ref  {fig:menu}}}{42}{table.6}}
\newlabel{tab:menut}{{6}{42}{\newline Description of the menu scene component in figure \ref {fig:menu}}{table.6}{}}
\@writefile{lot}{\contentsline {table}{\numberline {7}{\ignorespaces \newline  Description of the menu scene component in figure \ref  {fig:menu}}}{43}{table.7}}
\newlabel{tab:menut}{{7}{43}{\newline Description of the menu scene component in figure \ref {fig:menu}}{table.7}{}}
\@writefile{lof}{\contentsline {figure}{\numberline {24}{\ignorespaces \newline  The menu scene in Unity and its components}}{43}{figure.24}}
\newlabel{fig:menu}{{24}{43}{\newline The menu scene in Unity and its components}{figure.24}{}}
\@writefile{lot}{\contentsline {table}{\numberline {8}{\ignorespaces \newline  Description of the Levelsel scene component in figure \ref  {fig:level}}}{44}{table.8}}
\newlabel{tab:levelt}{{8}{44}{\newline Description of the Levelsel scene component in figure \ref {fig:level}}{table.8}{}}
\@writefile{toc}{\contentsline {subsubsection}{\numberline {9.1.3}Levelsel Scene and stageManager.cs}{44}{subsubsection.9.1.3}}
\newlabel{lvsel}{{9.1.3}{44}{Levelsel Scene and stageManager.cs}{subsubsection.9.1.3}{}}
\@writefile{lof}{\contentsline {figure}{\numberline {25}{\ignorespaces \newline  The Levelsel scene in Unity and its components}}{44}{figure.25}}
\newlabel{fig:level}{{25}{44}{\newline The Levelsel scene in Unity and its components}{figure.25}{}}
\@writefile{toc}{\contentsline {subsubsection}{\numberline {9.1.4}Question Scene and QuestionManager.cs}{44}{subsubsection.9.1.4}}
\@writefile{lof}{\contentsline {figure}{\numberline {26}{\ignorespaces \newline  Quiz Game play in the Question scene}}{45}{figure.26}}
\newlabel{fig:quiz1}{{26}{45}{\newline Quiz Game play in the Question scene}{figure.26}{}}
\@writefile{toc}{\contentsline {subsection}{\numberline {9.2}The Game Manager class : GameManager.cs}{45}{subsection.9.2}}
\@writefile{lot}{\contentsline {table}{\numberline {9}{\ignorespaces \newline  Description of the Question scene components in figures \ref  {fig:quiz1},\ref  {fig:quiz2},\ref  {fig:quiz3} }}{46}{table.9}}
\newlabel{tab:quizt}{{9}{46}{\newline Description of the Question scene components in figures \ref {fig:quiz1},\ref {fig:quiz2},\ref {fig:quiz3}}{table.9}{}}
\@writefile{lot}{\contentsline {table}{\numberline {10}{\ignorespaces \newline  Classes in the GameManager.cs}}{46}{table.10}}
\newlabel{tab:class}{{10}{46}{\newline Classes in the GameManager.cs}{table.10}{}}
\@writefile{lot}{\contentsline {table}{\numberline {11}{\ignorespaces \newline  Methods in the GameManager.cs}}{47}{table.11}}
\newlabel{tab:methods}{{11}{47}{\newline Methods in the GameManager.cs}{table.11}{}}
\@writefile{lof}{\contentsline {figure}{\numberline {27}{\ignorespaces \newline  Text Game play in the Question scene}}{48}{figure.27}}
\newlabel{fig:quiz2}{{9.1.4}{48}{Question Scene and QuestionManager.cs}{figure.27}{}}
\@writefile{toc}{\contentsline {subsection}{\numberline {9.3}Levels and question definition in XML files}{48}{subsection.9.3}}
\newlabel{extendgame}{{9.3}{48}{Levels and question definition in XML files}{subsection.9.3}{}}
\@writefile{toc}{\contentsline {subsubsection}{\numberline {9.3.1}Level's File}{48}{subsubsection.9.3.1}}
\@writefile{toc}{\contentsline {subsubsection}{\numberline {9.3.2}Levels Tag}{48}{subsubsection.9.3.2}}
\@writefile{lol}{\contentsline {lstlisting}{\numberline {10}Example of the Level tag}{48}{lstlisting.10}}
\@writefile{lof}{\contentsline {figure}{\numberline {28}{\ignorespaces \newline  Block Game play in the Question scene}}{49}{figure.28}}
\newlabel{fig:quiz3}{{28}{49}{\newline Block Game play in the Question scene}{figure.28}{}}
\@writefile{lof}{\contentsline {figure}{\numberline {29}{\ignorespaces \newline  Entity-Class relations in the game. The feedback or hint strings that appears after the player has performed an action are stored as tip or hint in the XML file. This is the reason why there is a box that contains Tip and Joke entities}}{50}{figure.29}}
\newlabel{fig:classent}{{29}{50}{\newline Entity-Class relations in the game. The feedback or hint strings that appears after the player has performed an action are stored as tip or hint in the XML file. This is the reason why there is a box that contains Tip and Joke entities}{figure.29}{}}
\@writefile{toc}{\contentsline {subsubsection}{\numberline {9.3.3}Tips and Jokes Tag}{50}{subsubsection.9.3.3}}
\@writefile{lol}{\contentsline {lstlisting}{\numberline {11}Example of the Tip tag}{50}{lstlisting.11}}
\@writefile{toc}{\contentsline {subsubsection}{\numberline {9.3.4}Questions Tag}{50}{subsubsection.9.3.4}}
\@writefile{lol}{\contentsline {lstlisting}{\numberline {12}Example of the Question tag}{51}{lstlisting.12}}
\@writefile{toc}{\contentsline {subsubsection}{\numberline {9.3.5}Quiz Game Play Format}{51}{subsubsection.9.3.5}}
\@writefile{lol}{\contentsline {lstlisting}{\numberline {13}Example of the Quiz Game Play tag}{51}{lstlisting.13}}
\@writefile{toc}{\contentsline {subsubsection}{\numberline {9.3.6}Text Game Play Format}{51}{subsubsection.9.3.6}}
\@writefile{lol}{\contentsline {lstlisting}{\numberline {14}Example of the Text Game play Question tag}{51}{lstlisting.14}}
\@writefile{toc}{\contentsline {subsubsection}{\numberline {9.3.7}Block Game Play Format}{52}{subsubsection.9.3.7}}
\@writefile{lol}{\contentsline {lstlisting}{\numberline {15}Example of the Block Game Play Question tag}{52}{lstlisting.15}}
\@writefile{toc}{\contentsline {subsection}{\numberline {9.4}KNOWLEDGE BAYESIAN COMPONENT}{52}{subsection.9.4}}
\newlabel{codek}{{9.4}{52}{KNOWLEDGE BAYESIAN COMPONENT}{subsection.9.4}{}}
\@writefile{toc}{\contentsline {subsubsection}{\numberline {9.4.1}Attributes and Constructor of KBT Class}{52}{subsubsection.9.4.1}}
\newlabel{lst:kc}{{9.4.1}{52}{}{lstlisting.-1}{}}
\citation{beckchang}
\newlabel{lst:kcrec}{{9.4.1}{53}{}{lstlisting.-2}{}}
\@writefile{toc}{\contentsline {subsubsection}{\numberline {9.4.2}Example}{53}{subsubsection.9.4.2}}
\@writefile{toc}{\contentsline {subsubsection}{\numberline {9.4.3}Query Methods}{53}{subsubsection.9.4.3}}
\newlabel{queryset}{{9.4.3}{53}{Query Methods}{subsubsection.9.4.3}{}}
\citation{anderson}
\citation{koedinger}
\@writefile{lot}{\contentsline {table}{\numberline {12}{\ignorespaces \newline  Evolution in three time steps of the knowledge component}}{54}{table.12}}
\newlabel{tab:kbtkbt}{{12}{54}{\newline Evolution in three time steps of the knowledge component}{table.12}{}}
\@writefile{toc}{\contentsline {subsubsection}{\numberline {9.4.4}Command Methods}{54}{subsubsection.9.4.4}}
\newlabel{commandset}{{9.4.4}{54}{Command Methods}{subsubsection.9.4.4}{}}
\citation{corbett}
\@writefile{toc}{\contentsline {subsubsection}{\numberline {9.4.5}Model Degeneracy}{55}{subsubsection.9.4.5}}
\@setckpt{programmersmanual}{
\setcounter{page}{57}
\setcounter{equation}{0}
\setcounter{enumi}{3}
\setcounter{enumii}{0}
\setcounter{enumiii}{0}
\setcounter{enumiv}{0}
\setcounter{footnote}{0}
\setcounter{mpfootnote}{0}
\setcounter{part}{0}
\setcounter{section}{9}
\setcounter{subsection}{4}
\setcounter{subsubsection}{5}
\setcounter{paragraph}{0}
\setcounter{subparagraph}{0}
\setcounter{figure}{29}
\setcounter{table}{12}
\setcounter{Item}{6}
\setcounter{Hfootnote}{0}
\setcounter{bookmark@seq@number}{0}
\setcounter{lstnumber}{3}
\setcounter{section@level}{3}
\setcounter{lstlisting}{15}
}
