\relax 
\providecommand\hyper@newdestlabel[2]{}
\@writefile{toc}{\contentsline {section}{\numberline {6}Recaps}{24}{section.6}}
\@writefile{toc}{\contentsline {subsection}{\numberline {6.1}Recap on Firewall}{24}{subsection.6.1}}
\newlabel{firewall}{{6.1}{24}{Recap on Firewall}{subsection.6.1}{}}
\@writefile{toc}{\contentsline {subsubsection}{\numberline {6.1.1}Topology}{25}{subsubsection.6.1.1}}
\newlabel{dmz}{{6.1.1}{25}{Topology}{subsubsection.6.1.1}{}}
\@writefile{toc}{\contentsline {subsubsection}{\numberline {6.1.2}IDS}{25}{subsubsection.6.1.2}}
\newlabel{idsrecap}{{6.1.2}{25}{IDS}{subsubsection.6.1.2}{}}
\@writefile{toc}{\contentsline {subsubsection}{\numberline {6.1.3}IPS}{25}{subsubsection.6.1.3}}
\@writefile{toc}{\contentsline {subsection}{\numberline {6.2}Recap on Symmetric Cryptography}{26}{subsection.6.2}}
\newlabel{recap_crypto}{{6.2}{26}{Recap on Symmetric Cryptography}{subsection.6.2}{}}
\newlabel{symmetric}{{6.2}{26}{Recap on Symmetric Cryptography}{subsection.6.2}{}}
\@writefile{toc}{\contentsline {subsubsection}{\numberline {6.2.1}ECB}{26}{subsubsection.6.2.1}}
\newlabel{ecb}{{6.2.1}{26}{ECB}{subsubsection.6.2.1}{}}
\@writefile{toc}{\contentsline {subsubsection}{\numberline {6.2.2}CBC}{27}{subsubsection.6.2.2}}
\newlabel{cbc}{{6.2.2}{27}{CBC}{subsubsection.6.2.2}{}}
\@writefile{toc}{\contentsline {subsubsection}{\numberline {6.2.3}CTS}{27}{subsubsection.6.2.3}}
\@writefile{toc}{\contentsline {subsubsection}{\numberline {6.2.4}CFB}{28}{subsubsection.6.2.4}}
\@writefile{toc}{\contentsline {subsubsection}{\numberline {6.2.5}OFB}{28}{subsubsection.6.2.5}}
\@writefile{toc}{\contentsline {subsubsection}{\numberline {6.2.6}CTR}{28}{subsubsection.6.2.6}}
\newlabel{ctr}{{6.2.6}{28}{CTR}{subsubsection.6.2.6}{}}
\@writefile{toc}{\contentsline {subsubsection}{\numberline {6.2.7}3DES}{28}{subsubsection.6.2.7}}
\newlabel{des}{{6.2.7}{28}{3DES}{subsubsection.6.2.7}{}}
\@writefile{toc}{\contentsline {subsubsection}{\numberline {6.2.8}IDEA}{28}{subsubsection.6.2.8}}
\newlabel{idea}{{6.2.8}{28}{IDEA}{subsubsection.6.2.8}{}}
\@writefile{toc}{\contentsline {subsubsection}{\numberline {6.2.9}RC2 -RC4 -RC5}{29}{subsubsection.6.2.9}}
\newlabel{rc}{{6.2.9}{29}{RC2 -RC4 -RC5}{subsubsection.6.2.9}{}}
\@writefile{toc}{\contentsline {subsection}{\numberline {6.3}AES}{29}{subsection.6.3}}
\newlabel{aes}{{6.3}{29}{AES}{subsection.6.3}{}}
\@setckpt{recap}{
\setcounter{page}{30}
\setcounter{equation}{0}
\setcounter{enumi}{3}
\setcounter{enumii}{0}
\setcounter{enumiii}{0}
\setcounter{enumiv}{0}
\setcounter{footnote}{0}
\setcounter{mpfootnote}{0}
\setcounter{part}{0}
\setcounter{section}{6}
\setcounter{subsection}{3}
\setcounter{subsubsection}{0}
\setcounter{paragraph}{0}
\setcounter{subparagraph}{0}
\setcounter{figure}{7}
\setcounter{table}{2}
\setcounter{Item}{6}
\setcounter{Hfootnote}{0}
\setcounter{bookmark@seq@number}{0}
\setcounter{lstnumber}{12}
\setcounter{section@level}{2}
\setcounter{lstlisting}{9}
}
