\relax 
\providecommand\hyper@newdestlabel[2]{}
\providecommand\HyperFirstAtBeginDocument{\AtBeginDocument}
\HyperFirstAtBeginDocument{\ifx\hyper@anchor\@undefined
\global\let\oldcontentsline\contentsline
\gdef\contentsline#1#2#3#4{\oldcontentsline{#1}{#2}{#3}}
\global\let\oldnewlabel\newlabel
\gdef\newlabel#1#2{\newlabelxx{#1}#2}
\gdef\newlabelxx#1#2#3#4#5#6{\oldnewlabel{#1}{{#2}{#3}}}
\AtEndDocument{\ifx\hyper@anchor\@undefined
\let\contentsline\oldcontentsline
\let\newlabel\oldnewlabel
\fi}
\fi}
\global\let\hyper@last\relax 
\gdef\HyperFirstAtBeginDocument#1{#1}
\providecommand\HyField@AuxAddToFields[1]{}
\providecommand\HyField@AuxAddToCoFields[2]{}
\@input{chapter0.aux}
\@input{chapter1.aux}
\@input{chapter2.aux}
\@input{chapter3.aux}
\@input{chapter4.aux}
\@input{recap.aux}
\@input{gamesmanual.aux}
\@input{programmersmanual.aux}
\bibcite{wired}{1}
\bibcite{popper}{2}
\bibcite{kenrobinson}{3}
\bibcite{mcluhan}{4}
\bibcite{galimberti}{5}
\bibcite{mihaly}{6}
\bibcite{bad}{7}
\bibcite{space}{8}
\bibcite{basic}{9}
\bibcite{disorder}{10}
\bibcite{cop}{11}
\bibcite{kirtsquire}{12}
\bibcite{ryan_1}{13}
\bibcite{beckchang}{14}
\bibcite{corbett}{15}
\bibcite{anderson}{16}
\bibcite{koedinger}{17}
